<svg version="1.1" id="Layer_1" xmlns="http://www.w3.org/2000/svg" xmlns:xlink="http://www.w3.org/1999/xlink" x="0px" y="0px"
	 width="16px" height="16px" viewBox="0 0 16 16" enable-background="new 0 0 16 16" xml:space="preserve">
<polygon fill="#FFFFFF" points="8,2.8 16,10.7 13.6,13.1 8.1,7.6 2.5,13.2 0,10.7 "/>
</svg>